{
  "annotations": {
    "list": [
      {
        "builtIn": 1,
        "datasource": "-- Grafana --",
        "enable": true,
        "hide": true,
        "iconColor": "rgba(0, 211, 255, 1)",
        "name": "Annotations & Alerts",
        "type": "dashboard"
      }
    ]
  },
  "editable": true,
  "gnetId": null,
  "graphTooltip": 0,
  "id": 46,
  "links": [],
  "panels": [
    {
      "datasource": null,
      "fieldConfig": {
        "defaults": {
          "custom": {
            "align": null,
            "filterable": false
          },
          "mappings": [],
          "thresholds": {
            "mode": "absolute",
            "steps": [
              {
                "color": "green",
                "value": null
              },
              {
                "color": "red",
                "value": 80
              }
            ]
          }
        },
        "overrides": [
          {
            "matcher": {
              "id": "byName",
              "options": "lag"
            },
            "properties": [
              {
                "id": "unit",
                "value": "s"
              },
              {
                "id": "decimals",
                "value": 2
              },
              {
                "id": "color",
                "value": {
                  "mode": "thresholds"
                }
              },
              {
                "id": "thresholds",
                "value": {
                  "mode": "absolute",
                  "steps": [
                    {
                      "color": "light-green",
                      "value": null
                    },
                    {
                      "color": "green",
                      "value": 25
                    },
                    {
                      "color": "yellow",
                      "value": 28
                    },
                    {
                      "color": "orange",
                      "value": 30
                    },
                    {
                      "color": "red",
                      "value": 35
                    }
                  ]
                }
              },
              {
                "id": "custom.displayMode",
                "value": "color-text"
              }
            ]
          },
          {
            "matcher": {
              "id": "byName",
              "options": "latest"
            },
            "properties": [
              {
                "id": "unit",
                "value": "dateTimeAsSystem"
              }
            ]
          },
          {
            "matcher": {
              "id": "byName",
              "options": "node"
            },
            "properties": [
              {
                "id": "custom.width",
                "value": 333
              }
            ]
          },
          {
            "matcher": {
              "id": "byName",
              "options": "Time"
            },
            "properties": [
              {
                "id": "custom.width",
                "value": 173
              }
            ]
          }
        ]
      },
      "gridPos": {
        "h": 7,
        "w": 24,
        "x": 0,
        "y": 0
      },
      "id": 2,
      "options": {
        "showHeader": true,
        "sortBy": []
      },
      "pluginVersion": "7.3.1",
      "targets": [
        {
          "expr": " count_over_time( os_cpu_sys{node=~\"^.*$\"}[60m] )",
          "format": "table",
          "instant": true,
          "interval": "",
          "legendFormat": "",
          "refId": "A"
        },
        {
          "expr": "time() - timestamp( os_cpu_sys{node=~\"^.*$\"} )",
          "format": "table",
          "instant": true,
          "interval": "",
          "legendFormat": "",
          "refId": "B"
        },
        {
          "expr": "timestamp( os_cpu_sys{node=~\"^.*$\"} ) * 1000",
          "format": "table",
          "instant": true,
          "interval": "",
          "legendFormat": "",
          "refId": "C"
        }
      ],
      "timeFrom": null,
      "timeShift": null,
      "title": "kernel-beat status",
      "transformations": [
        {
          "id": "merge",
          "options": {}
        },
        {
          "id": "organize",
          "options": {
            "excludeByName": {
              "async_source": true,
              "unit": true
            },
            "indexByName": {},
            "renameByName": {
              "Value #A": "metrics",
              "Value #B": "lag",
              "Value #C": "latest"
            }
          }
        }
      ],
      "type": "table"
    }
  ],
  "refresh": "1m",
  "schemaVersion": 26,
  "style": "dark",
  "tags": [],
  "templating": {
    "list": []
  },
  "time": {
    "from": "now-5m",
    "to": "now"
  },
  "timepicker": {},
  "timezone": "",
  "title": "Collection Status",
  "uid": "qdeLKe7nz",
  "version": 1
}
