{
  "annotations": {
    "list": [
      {
        "builtIn": 1,
        "datasource": "-- Grafana --",
        "enable": true,
        "hide": true,
        "iconColor": "rgba(0, 211, 255, 1)",
        "name": "Annotations & Alerts",
        "target": {
          "limit": 100,
          "matchAny": false,
          "tags": [],
          "type": "dashboard"
        },
        "type": "dashboard"
      }
    ]
  },
  "editable": true,
  "gnetId": null,
  "graphTooltip": 0,
  "id": 15,
  "iteration": 1664277336747,
  "links": [
    {
      "asDropdown": true,
      "icon": "external link",
      "includeVars": true,
      "keepTime": true,
      "tags": [ "sg-logs" ],
      "targetBlank": false,
      "title": "Disk Collection Dashboards",
      "tooltip": "",
      "type": "dashboards",
      "url": ""
    }
  ],
  "panels": [
    {
      "datasource": "TimescaleDB",
      "fieldConfig": {
        "defaults": {
          "custom": {
            "align": null,
            "displayMode": "auto",
            "filterable": false
          },
          "mappings": [],
          "thresholds": {
            "mode": "absolute",
            "steps": [
              {
                "color": "green",
                "value": null
              },
              {
                "color": "red",
                "value": 80
              }
            ]
          }
        },
        "overrides": [
          {
            "matcher": {
              "id": "byName",
              "options": "avg_read"
            },
            "properties": [
              {
                "id": "unit",
                "value": "bytes"
              }
            ]
          }
        ]
      },
      "gridPos": {
        "h": 21,
        "w": 24,
        "x": 0,
        "y": 0
      },
      "id": 2,
      "options": {
        "showHeader": true,
        "sortBy": [
          {
            "desc": false,
            "displayName": "node"
          }
        ]
      },
      "pluginVersion": "8.1.2",
      "targets": [
        {
          "format": "table",
          "group": [],
          "metricColumn": "none",
          "rawQuery": true,
          "rawSql": "SELECT DISTINCT( val(node_id) ) AS node,\n       MAX(time)  OVER (PARTITION BY node_id ORDER BY node_id)  AS last_time,\n       (NOW() -\n        MAX(time) OVER (PARTITION BY node_id ORDER BY node_id)) AS lag,\n       COUNT(*)   OVER (PARTITION BY node_id ORDER BY node_id)  AS num_recs,\n       AVG(value) OVER (PARTITION BY node_id ORDER BY node_id)  AS avg_read\n  FROM device_storage_read\n  WHERE labels ? ('stat_type' == 'total bytes processed')\n    AND time > now() - INTERVAL '60 minutes'\n  ORDER BY node ASC;",
          "refId": "A",
          "select": [
            [
              {
                "params": [ "value" ],
                "type": "column"
              }
            ]
          ],
          "table": "aggregator_openapi_v2_regeneration_count",
          "timeColumn": "\"time\"",
          "timeColumnType": "timestamp",
          "where": [
            {
              "name": "$__timeFilter",
              "params": [],
              "type": "macro"
            }
          ]
        }
      ],
      "timeFrom": null,
      "timeShift": null,
      "title": "sg-logs status",
      "transformations": [],
      "type": "table"
    }
  ],
  "refresh": "1m",
  "schemaVersion": 30,
  "style": "dark",
  "tags": [ "sg-logs" ],
  "templating": {
    "list": [
      {
        "allValue": ".*",
        "current": {
          "selected": false,
          "text": "All",
          "value": "$__all"
        },
        "datasource": "TimescaleDB",
        "definition": "SELECT DISTINCT( val(node_id) ) AS node\n  FROM device_storage_read\n  WHERE time > now() - INTERVAL '24 hours';\n",
        "description": "All nodes from which device_storage_read has been reported over the last 24 hours",
        "error": null,
        "hide": 0,
        "includeAll": true,
        "label": null,
        "multi": false,
        "name": "Node",
        "options": [],
        "query": "SELECT DISTINCT( val(node_id) ) AS node\n  FROM device_storage_read\n  WHERE time > now() - INTERVAL '24 hours';\n",
        "refresh": 2,
        "regex": "",
        "skipUrlSync": false,
        "sort": 1,
        "type": "query"
      }
    ]
  },
  "time": {
    "from": "now-1h",
    "to": "now"
  },
  "timepicker": {},
  "timezone": "",
  "title": "Disk Collection Status",
  "uid": "0Tt6he7Vz",
  "version": 1
}
